SQL A Quick Introduction
…
View(airports)

If we want to bring this table to R we need to use collect() function

airports |> 
  collect() ->
  df_airports
df_airports

# A tibble: 1,458 × 8
   faa   name                             lat    lon   alt    tz dst   tzone    
   <chr> <chr>                          <dbl>  <dbl> <dbl> <dbl> <chr> <chr>    
 1 04G   Lansdowne Airport               41.1  -80.6  1044    -5 A     America/…
 2 06A   Moton Field Municipal Airport   32.5  -85.7   264    -6 A     America/…
 3 06C   Schaumburg Regional             42.0  -88.1   801    -6 A     America/…
 4 06N   Randall Airport                 41.4  -74.4   523    -5 A     America/…
 5 09J   Jekyll Island Airport           31.1  -81.4    11    -5 A     America/…
 6 0A9   Elizabethton Municipal Airport  36.4  -82.2  1593    -5 A     America/…
 7 0G6   Williams County Airport         41.5  -84.5   730    -5 A     America/…
 8 0G7   Finger Lakes Regional Airport   42.9  -76.8   492    -5 A     America/…
 9 0P2   Shoestring Aviation Airfield    39.8  -76.6  1000    -5 U     America/…
10 0S9   Jefferson County Intl           48.1 -123.    108    -8 A     America/…
# ℹ 1,448 more rows
…
Source:SQL [?? x 2]

Which implies R does not know the entire the table, it only knows the first 10 rows.

If we want to get the result of that query back to R we need to use collect() function

R

"SELECT tzone, name
 FROM airports" %>%
  sql() %>%
  tbl(conn, .) %>%
  collect()

# A tibble: 1,458 × 2
   tzone               name                          
   <chr>               <chr>                         
 1 America/New_York    Lansdowne Airport             
 2 America/Chicago     Moton Field Municipal Airport 
 3 America/Chicago     Schaumburg Regional           
 4 America/New_York    Randall Airport               
 5 America/New_York    Jekyll Island Airport         
 6 America/New_York    Elizabethton Municipal Airport
 7 America/New_York    Williams County Airport       
 8 America/New_York    Finger Lakes Regional Airport 
 9 America/New_York    Shoestring Aviation Airfield  
10 America/Los_Angeles Jefferson County Intl         
# ℹ 1,448 more rows

Now it will return the data as a datafram into R.

(ii) with dplyr's functions

R

tbl(conn, "airports") %>%
  select(tzone, name) %>%
  collect()

# A tibble: 1,458 × 2
   tzone               name                          
   <chr>               <chr>                         
 1 America/New_York    Lansdowne Airport             
 2 America/Chicago     Moton Field Municipal Airport 
 3 America/Chicago     Schaumburg Regional           
 4 America/New_York    Randall Airport               
 5 America/New_York    Jekyll Island Airport         
 6 America/New_York    Elizabethton Municipal Airport
 7 America/New_York    Williams County Airport       
 8 America/New_York    Finger Lakes Regional Airport 
 9 America/New_York    Shoestring Aviation Airfield  
10 America/Los_Angeles Jefferson County Intl         
# ℹ 1,448 more rows
…
